\relax 
\newlabel{int_tan}{{1}{1}}
\newlabel{sym}{{2}{1}}
\newlabel{fraX}{{3}{1}}
\@writefile{lof}{\contentsline {figure}{\numberline {1}{\ignorespaces "my atan(x)"\ is data points made by nummerical integration of equation\nobreakspace  {}\textup  {\hbox {\mathsurround \z@ \normalfont  (\ignorespaces 1\hbox {}\unskip \@@italiccorr )}} and "atan(x)"\ is the function from math.h}}{1}}
\newlabel{fig:arc}{{1}{1}}
