

 Exercise 1:

Gamma function to 5: 24 
Bessel function to 0.5: 0.93847 
The squere root of minus 2: 0+1.41421*i
exp(i)=0.540302+0.841471*i
exp(i*pi)=-1+1.22465e-16*i
i to the power of e: -0.42822+-0.903675*i


 Exercise 2: 

Same number stored ind float, double and long double, respectivly:
 0.1111111119389533996582031
 0.1111111111111111049432054
 0.1111111111111111049432054

